^C:\USERS\ZAKIR\SOURCE\REPOS\17\HW_19\X64\DEBUG\HW_19.OBJ
C:\USERS\ZAKIR\SOURCE\REPOS\17\HW_19\X64\DEBUG\HW_19.EXE
C:\USERS\ZAKIR\SOURCE\REPOS\17\HW_19\X64\DEBUG\HW_19.ILK
C:\USERS\ZAKIR\SOURCE\REPOS\17\HW_19\X64\DEBUG\HW_19.PDB
